0 info it worked if it ends with ok
1 verbose cli [
1 verbose cli   '/Users/aniturner/.nvm/versions/node/v14.17.6/bin/node',
1 verbose cli   '/Users/aniturner/.nvm/versions/node/v14.17.6/bin/npm',
1 verbose cli   'view',
1 verbose cli   '--json',
1 verbose cli   '@testing-library/jest-dom',
1 verbose cli   'description',
1 verbose cli   'dist-tags.latest',
1 verbose cli   'homepage',
1 verbose cli   'version'
1 verbose cli ]
2 info using npm@4.0.0
3 info using node@v14.17.6
4 silly mapToRegistry name @testing-library/jest-dom
5 silly mapToRegistry scope (from package name) @testing-library
6 verbose mapToRegistry no registry URL found in name for scope @testing-library
7 silly mapToRegistry using default registry
8 silly mapToRegistry registry https://artifactory-uw2.adobeitc.com/artifactory/api/npm/npm-wf-dev/
9 silly mapToRegistry data Result {
9 silly mapToRegistry   raw: '@testing-library/jest-dom',
9 silly mapToRegistry   scope: '@testing-library',
9 silly mapToRegistry   escapedName: '@testing-library%2fjest-dom',
9 silly mapToRegistry   name: '@testing-library/jest-dom',
9 silly mapToRegistry   rawSpec: '',
9 silly mapToRegistry   spec: 'latest',
9 silly mapToRegistry   type: 'tag'
9 silly mapToRegistry }
10 silly mapToRegistry uri https://artifactory-uw2.adobeitc.com/artifactory/api/npm/npm-wf-dev/@testing-library%2fjest-dom
11 verbose request uri https://artifactory-uw2.adobeitc.com/artifactory/api/npm/npm-wf-dev/@testing-library%2fjest-dom
12 verbose request always-auth set; sending authorization
13 info attempt registry request try #1 at 9:08:19 PM
14 verbose request using bearer token for auth
15 verbose request id 3e02131196249f02
16 http request GET https://artifactory-uw2.adobeitc.com/artifactory/api/npm/npm-wf-dev/@testing-library%2fjest-dom
17 http 403 https://artifactory-uw2.adobeitc.com/artifactory/api/npm/npm-wf-dev/@testing-library%2fjest-dom
18 verbose bad json <html>
18 verbose bad json <head><title>403 Forbidden</title></head>
18 verbose bad json <body>
18 verbose bad json <center><h1>403 Forbidden</h1></center>
18 verbose bad json <hr><center>nginx/1.20.2</center>
18 verbose bad json </body>
18 verbose bad json </html>
19 error registry error parsing json
20 verbose headers {
20 verbose headers   'content-type': 'text/html',
20 verbose headers   date: 'Sat, 23 Apr 2022 03:08:19 GMT',
20 verbose headers   server: 'nginx/1.20.2',
20 verbose headers   'content-length': '153',
20 verbose headers   connection: 'keep-alive'
20 verbose headers }
21 silly get cb [
21 silly get   403,
21 silly get   {
21 silly get     'content-type': 'text/html',
21 silly get     date: 'Sat, 23 Apr 2022 03:08:19 GMT',
21 silly get     server: 'nginx/1.20.2',
21 silly get     'content-length': '153',
21 silly get     connection: 'keep-alive'
21 silly get   }
21 silly get ]
22 verbose stack SyntaxError: Unexpected token < in JSON at position 0
22 verbose stack <html>
22 verbose stack <head><title>403 Forbidden</title></head>
22 verbose stack <body>
22 verbose stack <center><h1>403 Forbidden</h1></center>
22 verbose stack <hr><center>nginx/1.20.2</center>
22 verbose stack </body>
22 verbose stack </html>
22 verbose stack
22 verbose stack     at JSON.parse (<anonymous>)
22 verbose stack     at CachingRegistryClient.<anonymous> (/Users/aniturner/.nvm/versions/node/v14.17.6/lib/node_modules/npm/node_modules/npm-registry-client/lib/request.js:237:23)
22 verbose stack     at Request._callback (/Users/aniturner/.nvm/versions/node/v14.17.6/lib/node_modules/npm/node_modules/npm-registry-client/lib/request.js:210:14)
22 verbose stack     at Request.self.callback (/Users/aniturner/.nvm/versions/node/v14.17.6/lib/node_modules/npm/node_modules/request/request.js:187:22)
22 verbose stack     at Request.emit (events.js:400:28)
22 verbose stack     at Request.<anonymous> (/Users/aniturner/.nvm/versions/node/v14.17.6/lib/node_modules/npm/node_modules/request/request.js:1048:10)
22 verbose stack     at Request.emit (events.js:400:28)
22 verbose stack     at IncomingMessage.<anonymous> (/Users/aniturner/.nvm/versions/node/v14.17.6/lib/node_modules/npm/node_modules/request/request.js:969:12)
22 verbose stack     at IncomingMessage.emit (events.js:412:35)
22 verbose stack     at endReadableNT (internal/streams/readable.js:1317:12)
23 verbose cwd /Users/aniturner/dev/sending-http-requests
24 error Darwin 21.4.0
25 error argv "/Users/aniturner/.nvm/versions/node/v14.17.6/bin/node" "/Users/aniturner/.nvm/versions/node/v14.17.6/bin/npm" "view" "--json" "@testing-library/jest-dom" "description" "dist-tags.latest" "homepage" "version"
26 error node v14.17.6
27 error npm  v4.0.0
28 error Unexpected token < in JSON at position 0
28 error <html>
28 error <head><title>403 Forbidden</title></head>
28 error <body>
28 error <center><h1>403 Forbidden</h1></center>
28 error <hr><center>nginx/1.20.2</center>
28 error </body>
28 error </html>
29 error If you need help, you may report this error at:
29 error     <https://github.com/npm/npm/issues>
30 verbose exit [ 1, true ]
